perturbatr cookbook • perturbatr
…
## A perturbation data set
## 
## # A tibble: 4 x 3
## # Groups:   Condition [2]
##   Condition GeneSymbol Readout
##   <chr>     <chr>        <dbl>
## 1 V1        vps25        1853.
## 2 V1        rac3         -497.
## 3 V2        cep131       -445.
## 4 V2        eif3g         868.

  dataSet(my.perturbation.data)

## # A tibble: 23,040 x 6
##    Condition Replicate GeneSymbol   Perturbation Readout Control
##    <chr>         <dbl> <chr>        <chr>          <dbl>   <int>
##  1 V1               1. c1qb         fe584           886.       0
##  2 V1               1. ifnb1        8b2ec          -246.       0
##  3 V1               1. ifna7        1c025          1136.       0
##  4 V1               1. dkfzp781d102 802b1          1200.       0
##  5 V1               1. lpar4        13651          2864.       0
##  6 V1               1. rfx4         f9386          1213.       0
##  7 V1               1. cadm1        0e930          2885.       0
##  8 V1               1. lgr6         828d9          -259.       0
##  9 V1               1. tfap2c       433b6           835.       0
## 10 V1               1. adh6         b7829          -717.       0
## # ... with 23,030 more rows
…
where \(y_{cgpt}\) is the phenotype for a condition \(c\), gene \(g\) and perturbation \(p\). This would correspond to the formula

  Readout ~ Condition + (1|GeneSymbol) + (1|Condition:GeneSymbol)

which is the default argument. You can see that we model the gene effect using different intercepts for each gene. To use the hierarchical model with the above formula, call:

  data(rnaiscreen)
  res <- hm(rnaiscreen, effect.size=0.01)

Depending on your data set different clustering effects might be present of course. So let’s have a look at our data again:

  dataSet(rnaiscreen)

## # A tibble: 23,040 x 18
##    Condition Replicate Plate RowIdx ColIdx GeneSymbol ReadoutClass Readout
##    <chr>         <dbl> <int>  <int>  <int> <chr>      <chr>          <dbl>
##  1 V1               1.     1      1      1 c1qb       Readout         886.
##  2 V1               1.     1      1      2 ifnb1      Readout        -246.
##  3 V1               1.     1      1      3 ifna7      Readout        1136.
##  4 V1               1.     1      1      4 dkfzp781d… Readout        1200.
##  5 V1               1.     1      1      5 lpar4      Readout        2864.
##  6 V1               1.     1      1      6 rfx4       Readout        1213.
##  7 V1               1.     1      1      7 cadm1      Readout        2885.
##  8 V1               1.     1      1      8 lgr6       Readout        -259.
##  9 V1               1.     1      1      9 tfap2c     Readout         835.
## 10 V1               1.     1      1     10 adh6       Readout        -717.
## # ... with 23,030 more rows, and 10 more variables: ReadoutType <chr>,
## #   Control <int>, Library <chr>, Perturbation <chr>, Screen <chr>,
## #   Cell <chr>, ScreenType <chr>, NumCells <int>, Design <chr>,
## #   Entrez <int>
…
