Getter for model fit — modelFit • perturbatr
…
#> Weights: md$Weight
#> REML criterion at convergence: 146557.9
#> Random effects:
#>  Groups               Name        Std.Dev.
#>  Condition:GeneSymbol (Intercept) 0.52017 
#>  GeneSymbol           (Intercept) 0.05352 
#>  Residual                         1.19492 
#> Number of obs: 45160, groups:  Condition:GeneSymbol, 1434; GeneSymbol, 717
#> Fixed Effects:
#>   (Intercept)  ConditionSARS  
#>    -0.0477118      0.0001152  
#> 
#> $ge.fdrs
#> $ge.fdrs$ret
#> # A tibble: 717 x 2
#>    GeneSymbol  Qval
#>    <chr>      <dbl>
#>  1 aak1          NA
#>  2 abl1          NA
#>  3 abl2          NA
#>  4 acvr1         NA
#>  5 acvr1b        NA
#>  6 acvr1c        NA
#>  7 acvr2         NA
#>  8 acvr2b        NA
#>  9 acvrl1        NA
#> 10 adam9         NA
#> # ... with 707 more rows
…
